<?xml version="1.0" encoding="UTF-8" standalone="no"?>
<!-- Created with Inkscape (http://www.inkscape.org/) -->

<svg
   xmlns:dc="http://purl.org/dc/elements/1.1/"
   xmlns:cc="http://creativecommons.org/ns#"
   xmlns:rdf="http://www.w3.org/1999/02/22-rdf-syntax-ns#"
   xmlns:svg="http://www.w3.org/2000/svg"
   xmlns="http://www.w3.org/2000/svg"
   xmlns:sodipodi="http://sodipodi.sourceforge.net/DTD/sodipodi-0.dtd"
   xmlns:inkscape="http://www.inkscape.org/namespaces/inkscape"
   width="270.93332mm"
   height="270.93332mm"
   viewBox="0 0 270.93332 270.93334"
   version="1.1"
   id="svg662"
   inkscape:version="0.92.4 (5da689c313, 2019-01-14)"
   sodipodi:docname="logo-white.svg"
   inkscape:export-filename="/home/user/designs/EOTL/logo/logo-white.png"
   inkscape:export-xdpi="96"
   inkscape:export-ydpi="96">
  <defs
     id="defs656" />
  <sodipodi:namedview
     id="base"
     pagecolor="#ffffff"
     bordercolor="#666666"
     borderopacity="1.0"
     inkscape:pageopacity="0.0"
     inkscape:pageshadow="2"
     inkscape:zoom="0.30307536"
     inkscape:cx="463.44375"
     inkscape:cy="497.32598"
     inkscape:document-units="mm"
     inkscape:current-layer="layer1"
     showgrid="false"
     units="mm"
     inkscape:window-width="1366"
     inkscape:window-height="744"
     inkscape:window-x="0"
     inkscape:window-y="24"
     inkscape:window-maximized="1" />
  <metadata
     id="metadata659">
    <rdf:RDF>
      <cc:Work
         rdf:about="">
        <dc:format>image/svg+xml</dc:format>
        <dc:type
           rdf:resource="http://purl.org/dc/dcmitype/StillImage" />
        <dc:title></dc:title>
      </cc:Work>
    </rdf:RDF>
  </metadata>
  <g
     inkscape:label="Layer 1"
     inkscape:groupmode="layer"
     id="layer1"
     transform="translate(0,-26.066653)">
    <path
       style="opacity:1;fill:#ffffff;fill-opacity:1;stroke:none;stroke-width:93.90384674;stroke-miterlimit:4;stroke-dasharray:none;stroke-opacity:1"
       d="M 0 0 L 0 1024 L 1024 1024 L 1024 0 L 0 0 z M 590.53516 178.40234 L 823.25391 178.40234 L 823.25391 452.1875 L 590.53516 451.8457 L 590.53516 178.40234 z M 192.82422 178.74414 L 407.4043 178.74414 L 407.4043 240.00391 L 254.08398 240.00391 L 254.08398 282.09961 L 373.86523 282.09961 L 373.86523 343.35742 L 254.08398 343.35742 L 254.08398 391.27148 L 407.4043 391.27148 L 407.4043 452.5293 L 192.82422 452.5293 L 192.82422 178.74414 z M 651.79492 239.66211 L 651.79492 390.92773 L 761.99414 390.92773 L 761.99414 239.66211 L 651.79492 239.66211 z M 192.82422 606.38867 L 422.12109 606.38867 L 422.12109 667.64844 L 342.03906 667.64844 L 342.03906 880.17383 L 275.30273 880.17383 L 275.30273 667.64844 L 192.82422 667.64844 L 192.82422 606.38867 z M 594.54688 606.73047 L 655.80664 606.73047 L 655.80664 819.25586 L 731.78125 819.25586 L 731.78125 780.24219 L 792.69922 780.24219 L 792.69922 880.51562 L 594.54688 880.51562 L 594.54688 606.73047 z "
       id="rect5151-9"
       transform="matrix(0.26458333,0,0,0.26458333,0,26.066653)" />
    <g
       aria-label="E O T L"
       style="font-style:normal;font-variant:normal;font-weight:bold;font-stretch:normal;font-size:37.72865295px;line-height:1.25;font-family:'Liberation Mono';-inkscape-font-specification:'Liberation Mono Bold';letter-spacing:0px;word-spacing:0px;fill:#000000;fill-opacity:1;stroke:none;stroke-width:0.94321632"
       id="text5122-2-5"
       inkscape:export-xdpi="96"
       inkscape:export-ydpi="96" />
  </g>
</svg>
